…
``` r
seqquality(actcal.seq, stqual = 4:1)
```

    ## # A tibble: 2,000 x 1
    ##    `w=1`
    ##    <dbl>
    ##  1 0.667
    ##  2 0.718
    ##  3 0.667
    ##  4 0.474
    ##  5 1    
    ##  6 0.658
    ##  7 0    
    ##  8 1    
    ##  9 1    
    ## 10 1    
    ## # ... with 1,990 more rows
…
``` r
seqquality(actcal.seq, 
           stqual = c(4:1), 
           weight = c(.5,1,2), 
           time.varying = TRUE)
```

    ## $`w=0.5`
    ## # A tibble: 2,000 x 13
    ##    weight `t=1` `t=2` `t=3` `t=4` `t=5` `t=6` `t=7` `t=8` `t=9` `t=10` `t=11`
    ##     <dbl> <dbl> <dbl> <dbl> <dbl> <dbl> <dbl> <dbl> <dbl> <dbl>  <dbl>  <dbl>
    ##  1    0.5 0.816 0.816 0.816 0.816 0.816 0.816 0.816 0.816 0.816  0.816  0.816
    ##  2    0.5 0     0     0     0     0.267 0.433 0.544 0.623 0.682  0.726  0.762
    ##  3    0.5 0.816 0.816 0.816 0.816 0.816 0.816 0.816 0.816 0.816  0.816  0.816
    ##  4    0.5 0.577 0.577 0.577 0.577 0.577 0.577 0.577 0.577 0.577  0.611  0.637
    ##  5    0.5 1     1     1     1     1     1     1     1     1      1      1    
    ##  6    0.5 0     0.478 0.62  0.684 0.719 0.741 0.756 0.766 0.774  0.78   0.785
    ##  7    0.5 0     0     0     0     0     0     0     0     0      0      0    
    ##  8    0.5 1     1     1     1     1     1     1     1     1      1      1    
    ##  9    0.5 1     1     1     1     1     1     1     1     1      1      1    
    ## 10    0.5 1     1     1     1     1     1     1     1     1      1      1    
    ## # ... with 1,990 more rows, and 1 more variable: `t=12` <dbl>
    ## 
    ## $`w=1`
    ## # A tibble: 2,000 x 13
    ##    weight `t=1` `t=2` `t=3` `t=4` `t=5` `t=6` `t=7` `t=8` `t=9` `t=10` `t=11`
    ##     <dbl> <dbl> <dbl> <dbl> <dbl> <dbl> <dbl> <dbl> <dbl> <dbl>  <dbl>  <dbl>
    ##  1      1 0.667 0.667 0.667 0.667 0.667 0.667 0.667 0.667 0.667  0.667  0.667
    ##  2      1 0     0     0     0     0.333 0.524 0.643 0.722 0.778  0.818  0.848
    ##  3      1 0.667 0.667 0.667 0.667 0.667 0.667 0.667 0.667 0.667  0.667  0.667
    ##  4      1 0.333 0.333 0.333 0.333 0.333 0.333 0.333 0.333 0.333  0.394  0.439
    ##  5      1 1     1     1     1     1     1     1     1     1      1      1    
    ##  6      1 0     0.444 0.556 0.6   0.622 0.635 0.643 0.648 0.652  0.655  0.657
    ##  7      1 0     0     0     0     0     0     0     0     0      0      0    
    ##  8      1 1     1     1     1     1     1     1     1     1      1      1    
    ##  9      1 1     1     1     1     1     1     1     1     1      1      1    
    ## 10      1 1     1     1     1     1     1     1     1     1      1      1    
    ## # ... with 1,990 more rows, and 1 more variable: `t=12` <dbl>
    ## 
    ## $`w=2`
    ## # A tibble: 2,000 x 13
    ##    weight `t=1` `t=2` `t=3` `t=4` `t=5` `t=6` `t=7` `t=8` `t=9` `t=10` `t=11`
    ##     <dbl> <dbl> <dbl> <dbl> <dbl> <dbl> <dbl> <dbl> <dbl> <dbl>  <dbl>  <dbl>
    ##  1      2 0.444 0.444 0.444 0.444 0.444 0.444 0.444 0.444 0.444  0.444  0.444
    ##  2      2 0     0     0     0     0.455 0.67  0.786 0.853 0.895  0.922  0.941
    ##  3      2 0.444 0.444 0.444 0.444 0.444 0.444 0.444 0.444 0.444  0.444  0.444
    ##  4      2 0.111 0.111 0.111 0.111 0.111 0.111 0.111 0.111 0.111  0.198  0.257
    ##  5      2 1     1     1     1     1     1     1     1     1      1      1    
    ##  6      2 0     0.356 0.413 0.43  0.436 0.44  0.441 0.442 0.443  0.443  0.444
    ##  7      2 0     0     0     0     0     0     0     0     0      0      0    
    ##  8      2 1     1     1     1     1     1     1     1     1      1      1    
    ##  9      2 1     1     1     1     1     1     1     1     1      1      1    
    ## 10      2 1     1     1     1     1     1     1     1     1      1      1    
    ## # ... with 1,990 more rows, and 1 more variable: `t=12` <dbl>
…
